[
  {
    "_id": "61488a075942e4ef0d743038",
    "index": 0,
    "guid": "deea77c9-70b2-4716-ae8a-90c049fa6bc1",
    "isActive": false,
    "category": "dress",
    "title": "sit cupidatat commodo id officia",
    "country": "Macau",
    "company": "FURNAFIX",
    "gender": "male",
    "color": "crimson",
    "relData": "2020-06",
    "modData": "2021-08-08",
    "tags": [
      "in",
      "Lorem",
      "dolore",
      "deserunt",
      "cupidatat",
      "ea",
      "esse"
    ],
    "images": [
      {
        "id": 0,
        "img": "http://placehold.it/200x200/847546"
      },
      {
        "id": 1,
        "img": "http://placehold.it/200x200/915783"
      },
      {
        "id": 2,
        "img": "http://placehold.it/200x200/618286"
      },
      {
        "id": 3,
        "img": "http://placehold.it/200x200/51982"
      },
      {
        "id": 4,
        "img": "http://placehold.it/200x200/405288"
      },
      {
        "id": 5,
        "img": "http://placehold.it/200x200/377543"
      }
    ],
    "sizeAmount": [
      {
        "id": 30,
        "amount": 8
      },
      {
        "id": 31,
        "amount": 2
      },
      {
        "id": 32,
        "amount": 6
      },
      {
        "id": 33,
        "amount": 2
      },
      {
        "id": 34,
        "amount": 9
      },
      {
        "id": 35,
        "amount": 8
      },
      {
        "id": 36,
        "amount": 8
      },
      {
        "id": 37,
        "amount": 5
      },
      {
        "id": 38,
        "amount": 10
      },
      {
        "id": 39,
        "amount": 0
      },
      {
        "id": 40,
        "amount": 6
      },
      {
        "id": 41,
        "amount": 0
      },
      {
        "id": 42,
        "amount": 2
      },
      {
        "id": 43,
        "amount": 9
      },
      {
        "id": 44,
        "amount": 3
      },
      {
        "id": 45,
        "amount": 3
      },
      {
        "id": 46,
        "amount": 1
      },
      {
        "id": 47,
        "amount": 8
      },
      {
        "id": 48,
        "amount": 10
      },
      {
        "id": 49,
        "amount": 3
      }
    ],
    "shDescription": "Exercitation minim pariatur cillum et. Occaecat dolor quis consequat sunt qui velit cupidatat eu. Anim duis in duis cupidatat commodo amet sunt eiusmod sint nostrud enim eiusmod minim ut. Et duis ullamco dolore duis ipsum excepteur qui laborum nulla nulla non ea duis cupidatat.\r\n",
    "fDescription": "Irure anim esse anim commodo. Reprehenderit magna enim amet dolor incididunt ullamco exercitation fugiat. Et amet deserunt eiusmod reprehenderit ullamco dolor id magna quis aliqua sint laboris.\r\nMinim non minim cupidatat voluptate velit eu. Esse aliqua eiusmod proident officia mollit in et do tempor velit labore mollit. Ad enim id et mollit nulla dolor velit laborum sit velit non sint elit.\r\n",
    "price": "$2,316.17"
  },
  {
    "_id": "61488a0791d84b200f77e5c4",
    "index": 1,
    "guid": "b7f1836d-f084-4a63-b19b-588445f83626",
    "isActive": true,
    "category": "jacket",
    "title": "nisi ea excepteur non consequat",
    "country": "Yemen",
    "company": "ELEMANTRA",
    "gender": "male",
    "color": "lavender",
    "relData": "2020-03",
    "modData": "2020-10-30",
    "tags": [
      "tempor",
      "quis",
      "quis",
      "labore",
      "laboris",
      "fugiat",
      "officia"
    ],
    "images": [
      {
        "id": 0,
        "img": "http://placehold.it/200x200/624273"
      },
      {
        "id": 1,
        "img": "http://placehold.it/200x200/326054"
      },
      {
        "id": 2,
        "img": "http://placehold.it/200x200/414023"
      },
      {
        "id": 3,
        "img": "http://placehold.it/200x200/445256"
      },
      {
        "id": 4,
        "img": "http://placehold.it/200x200/332212"
      },
      {
        "id": 5,
        "img": "http://placehold.it/200x200/356505"
      }
    ],
    "sizeAmount": [
      {
        "id": 30,
        "amount": 4
      },
      {
        "id": 31,
        "amount": 6
      },
      {
        "id": 32,
        "amount": 2
      },
      {
        "id": 33,
        "amount": 2
      },
      {
        "id": 34,
        "amount": 2
      },
      {
        "id": 35,
        "amount": 9
      },
      {
        "id": 36,
        "amount": 7
      },
      {
        "id": 37,
        "amount": 0
      },
      {
        "id": 38,
        "amount": 6
      },
      {
        "id": 39,
        "amount": 4
      },
      {
        "id": 40,
        "amount": 5
      },
      {
        "id": 41,
        "amount": 3
      },
      {
        "id": 42,
        "amount": 7
      },
      {
        "id": 43,
        "amount": 4
      },
      {
        "id": 44,
        "amount": 9
      },
      {
        "id": 45,
        "amount": 6
      },
      {
        "id": 46,
        "amount": 9
      },
      {
        "id": 47,
        "amount": 4
      },
      {
        "id": 48,
        "amount": 3
      },
      {
        "id": 49,
        "amount": 7
      }
    ],
    "shDescription": "Nostrud esse eiusmod consequat officia tempor. Labore cupidatat ut occaecat laborum sit consectetur excepteur in. Officia qui in qui id pariatur excepteur nisi adipisicing minim Lorem et enim ex officia. Aliquip in laboris aute laboris eiusmod laboris laboris eiusmod do duis exercitation officia cillum deserunt. Amet excepteur duis tempor anim eu voluptate dolor ea. Aute dolor eiusmod magna ea non quis pariatur ex. Exercitation tempor aliqua veniam officia qui.\r\n",
    "fDescription": "Nisi ullamco aliquip aliqua elit aliquip fugiat ad elit aute aliqua ut. Ea irure adipisicing adipisicing aliqua ad ea non consequat nisi dolor ex culpa elit ex. Reprehenderit velit do mollit id qui dolor magna deserunt officia commodo veniam. Reprehenderit aute commodo elit enim labore quis amet tempor reprehenderit ad do dolore nulla adipisicing. Officia culpa occaecat qui laborum laboris nisi aute consectetur minim occaecat.\r\nAliquip enim pariatur do ut exercitation. Id dolor duis excepteur fugiat. Nulla sunt eiusmod minim est. Cupidatat nisi anim qui nostrud incididunt minim laborum cillum. Sunt pariatur aute cupidatat laborum minim Lorem minim proident veniam officia exercitation anim culpa.\r\n",
    "price": "$2,474.26"
  },
  {
    "_id": "61488a070572241601269ff2",
    "index": 2,
    "guid": "4f6bbc2d-2145-44b0-96b1-4fdf276657f0",
    "isActive": true,
    "category": "dress",
    "title": "esse tempor elit deserunt in",
    "country": "Zaire",
    "company": "FLUM",
    "gender": "male",
    "color": "amber",
    "relData": "2020-08",
    "modData": "2021-05-28",
    "tags": [
      "id",
      "aliquip",
      "cillum",
      "elit",
      "proident",
      "sit",
      "est"
    ],
    "images": [
      {
        "id": 0,
        "img": "http://placehold.it/200x200/424749"
      },
      {
        "id": 1,
        "img": "http://placehold.it/200x200/823514"
      },
      {
        "id": 2,
        "img": "http://placehold.it/200x200/863719"
      },
      {
        "id": 3,
        "img": "http://placehold.it/200x200/69202"
      },
      {
        "id": 4,
        "img": "http://placehold.it/200x200/885874"
      }
    ],
    "sizeAmount": [
      {
        "id": 30,
        "amount": 1
      },
      {
        "id": 31,
        "amount": 5
      },
      {
        "id": 32,
        "amount": 9
      },
      {
        "id": 33,
        "amount": 2
      },
      {
        "id": 34,
        "amount": 9
      },
      {
        "id": 35,
        "amount": 4
      },
      {
        "id": 36,
        "amount": 4
      },
      {
        "id": 37,
        "amount": 10
      },
      {
        "id": 38,
        "amount": 1
      },
      {
        "id": 39,
        "amount": 3
      },
      {
        "id": 40,
        "amount": 6
      },
      {
        "id": 41,
        "amount": 8
      },
      {
        "id": 42,
        "amount": 9
      },
      {
        "id": 43,
        "amount": 10
      },
      {
        "id": 44,
        "amount": 1
      },
      {
        "id": 45,
        "amount": 3
      },
      {
        "id": 46,
        "amount": 8
      },
      {
        "id": 47,
        "amount": 6
      },
      {
        "id": 48,
        "amount": 10
      },
      {
        "id": 49,
        "amount": 4
      }
    ],
    "shDescription": "Minim nulla magna cupidatat dolore officia quis ex ad exercitation magna aliqua et. Deserunt reprehenderit nisi tempor veniam veniam consectetur occaecat laboris Lorem officia incididunt do proident culpa. Duis aute enim ea cillum commodo id ut labore consequat tempor culpa id. Laborum enim laboris voluptate eu irure esse. Lorem adipisicing tempor aliquip laborum.\r\n",
    "fDescription": "Cillum cillum consequat proident fugiat irure duis aute deserunt. Amet ullamco sunt commodo labore non voluptate fugiat veniam. Irure nisi est in nostrud duis in ea non nulla nostrud ea nostrud nulla minim. Non cupidatat magna nostrud enim irure consectetur minim deserunt pariatur dolor ea labore.\r\nEsse amet officia duis eiusmod. Enim fugiat ut ad nulla incididunt ex eu tempor ex reprehenderit in. Do enim voluptate fugiat Lorem proident laboris sunt elit duis cillum veniam nisi tempor quis.\r\n",
    "price": "$1,064.59"
  },
  {
    "_id": "61488a07b4467c8514839e58",
    "index": 3,
    "guid": "980ff859-20b3-48da-b704-fd9be6bf1548",
    "isActive": true,
    "category": "jacket",
    "title": "nulla in elit est et",
    "country": "Cyprus",
    "company": "ACUMENTOR",
    "gender": "male",
    "color": "amber",
    "relData": "2021-08",
    "modData": "2020-09-17",
    "tags": [
      "esse",
      "in",
      "laboris",
      "cupidatat",
      "magna",
      "pariatur",
      "deserunt"
    ],
    "images": [
      {
        "id": 0,
        "img": "http://placehold.it/200x200/966734"
      },
      {
        "id": 1,
        "img": "http://placehold.it/200x200/668217"
      },
      {
        "id": 2,
        "img": "http://placehold.it/200x200/234307"
      },
      {
        "id": 3,
        "img": "http://placehold.it/200x200/208674"
      },
      {
        "id": 4,
        "img": "http://placehold.it/200x200/607099"
      }
    ],
    "sizeAmount": [
      {
        "id": 30,
        "amount": 3
      },
      {
        "id": 31,
        "amount": 8
      },
      {
        "id": 32,
        "amount": 1
      },
      {
        "id": 33,
        "amount": 8
      },
      {
        "id": 34,
        "amount": 4
      },
      {
        "id": 35,
        "amount": 8
      },
      {
        "id": 36,
        "amount": 10
      },
      {
        "id": 37,
        "amount": 1
      },
      {
        "id": 38,
        "amount": 0
      },
      {
        "id": 39,
        "amount": 5
      },
      {
        "id": 40,
        "amount": 7
      },
      {
        "id": 41,
        "amount": 3
      },
      {
        "id": 42,
        "amount": 6
      },
      {
        "id": 43,
        "amount": 8
      },
      {
        "id": 44,
        "amount": 7
      },
      {
        "id": 45,
        "amount": 9
      },
      {
        "id": 46,
        "amount": 1
      },
      {
        "id": 47,
        "amount": 5
      },
      {
        "id": 48,
        "amount": 2
      },
      {
        "id": 49,
        "amount": 8
      }
    ],
    "shDescription": "Id eiusmod sint consectetur proident nulla deserunt cupidatat tempor laborum velit ex labore quis. Ad cupidatat aliqua consectetur enim deserunt exercitation et nostrud laboris qui. Adipisicing dolore adipisicing duis amet minim.\r\n",
    "fDescription": "Velit voluptate nostrud do est est Lorem sit aliquip. Nisi excepteur enim et et nulla irure dolore commodo excepteur elit deserunt. Dolore esse proident eu adipisicing laboris. Proident ex magna nulla consequat eu dolore est dolor. Labore commodo duis sunt cupidatat incididunt elit sit. Cillum aliquip id ullamco reprehenderit proident dolore quis do reprehenderit enim in ea.\r\nEa proident ad enim qui ea nisi ea in sint id. Eu magna occaecat et deserunt id commodo do tempor Lorem dolor duis elit ex magna. Lorem reprehenderit laborum anim officia ut aliqua Lorem dolore culpa. Duis reprehenderit ut dolor enim. Exercitation ad consequat dolore incididunt eiusmod ea labore. Deserunt nostrud eu ullamco nulla laborum cillum Lorem sunt consectetur. Dolor laboris magna duis quis reprehenderit et aliquip dolore.\r\n",
    "price": "$3,313.29"
  },
  {
    "_id": "61488a07dc55d551b937eaff",
    "index": 4,
    "guid": "8a696c02-3004-4977-97cb-7f8bdb3f959e",
    "isActive": true,
    "category": "skirt",
    "title": "fugiat consectetur adipisicing exercitation aliquip",
    "country": "St. Pierre and Miquelon",
    "company": "PROSELY",
    "gender": "male",
    "color": "ivory",
    "relData": "2021-07",
    "modData": "2020-09-04",
    "tags": [
      "non",
      "reprehenderit",
      "id",
      "enim",
      "amet",
      "officia",
      "ad"
    ],
    "images": [
      {
        "id": 0,
        "img": "http://placehold.it/200x200/639288"
      },
      {
        "id": 1,
        "img": "http://placehold.it/200x200/866950"
      },
      {
        "id": 2,
        "img": "http://placehold.it/200x200/128915"
      },
      {
        "id": 3,
        "img": "http://placehold.it/200x200/378301"
      },
      {
        "id": 4,
        "img": "http://placehold.it/200x200/240649"
      },
      {
        "id": 5,
        "img": "http://placehold.it/200x200/182432"
      }
    ],
    "sizeAmount": [
      {
        "id": 30,
        "amount": 5
      },
      {
        "id": 31,
        "amount": 1
      },
      {
        "id": 32,
        "amount": 0
      },
      {
        "id": 33,
        "amount": 3
      },
      {
        "id": 34,
        "amount": 3
      },
      {
        "id": 35,
        "amount": 1
      },
      {
        "id": 36,
        "amount": 0
      },
      {
        "id": 37,
        "amount": 4
      },
      {
        "id": 38,
        "amount": 2
      },
      {
        "id": 39,
        "amount": 5
      },
      {
        "id": 40,
        "amount": 0
      },
      {
        "id": 41,
        "amount": 8
      },
      {
        "id": 42,
        "amount": 4
      },
      {
        "id": 43,
        "amount": 2
      },
      {
        "id": 44,
        "amount": 7
      },
      {
        "id": 45,
        "amount": 9
      },
      {
        "id": 46,
        "amount": 8
      },
      {
        "id": 47,
        "amount": 1
      },
      {
        "id": 48,
        "amount": 3
      },
      {
        "id": 49,
        "amount": 4
      }
    ],
    "shDescription": "Qui adipisicing laboris ex et officia eiusmod ex culpa velit reprehenderit amet id. Officia fugiat reprehenderit enim magna consectetur culpa ullamco. Exercitation ut ex aliquip dolore do nostrud ad excepteur et. Sunt est ex sint esse quis nisi est laboris reprehenderit pariatur eu qui. Id exercitation sunt esse sunt aliqua occaecat ut officia.\r\n",
    "fDescription": "Culpa velit nulla adipisicing ipsum. Est ex aute laborum cillum et quis irure. Officia consequat commodo esse nisi eiusmod ullamco voluptate excepteur tempor. Commodo mollit labore est cupidatat consequat cillum occaecat. Nulla ut reprehenderit aliqua ipsum nostrud nulla excepteur. Et commodo aliqua do laboris nisi adipisicing aliquip id adipisicing laborum sit id. Quis exercitation ea excepteur ut est.\r\nNulla incididunt nostrud pariatur veniam ad amet sit in do enim qui consectetur. Non do in ad ex adipisicing quis fugiat id eu tempor adipisicing ullamco. Exercitation non duis non est qui laboris ad.\r\n",
    "price": "$1,775.98"
  }
]
